[gd_scene load_steps=4 format=3 uid="uid://b7vikib6eiut3"]

[ext_resource type="Script" path="res://Scenes/GUI/HUD/base/sprite_texture_button.gd" id="1_1n28p"]
[ext_resource type="Texture2D" uid="uid://dwqswc2giit0q" path="res://Scenes/GUI/HUD/base/hotbar_slot_bg.png" id="2_uk42s"]
[ext_resource type="Texture2D" uid="uid://dpum0bukpjmth" path="res://Scenes/GUI/HUD/base/hotbar_slot_select.png" id="3_0i5sg"]

[node name="SpriteTextureButton" type="PanelContainer"]
texture_filter = 1
size_flags_horizontal = 4
size_flags_vertical = 4
script = ExtResource("1_1n28p")

[node name="Background" type="TextureRect" parent="."]
layout_mode = 2
texture = ExtResource("2_uk42s")

[node name="SelectedBackground" type="TextureRect" parent="."]
layout_mode = 2
texture = ExtResource("3_0i5sg")

[node name="Sprite" type="TextureRect" parent="."]
layout_mode = 2
