[gd_scene load_steps=4 format=3 uid="uid://o6njbfbebr0s"]

[ext_resource type="PackedScene" uid="uid://dikvtg280u10g" path="res://Scenes/Entities/Base/PhysicalEntity.tscn" id="1_rs716"]
[ext_resource type="Script" path="res://Scenes/Entities/Items/item_on_ground.gd" id="2_okcjr"]

[sub_resource type="BoxShape3D" id="BoxShape3D_7o40h"]
size = Vector3(0.8, 0.1, 0.8)

[node name="ItemOnGround" instance=ExtResource("1_rs716")]
script = ExtResource("2_okcjr")

[node name="Collision" parent="." index="0"]
shape = SubResource("BoxShape3D_7o40h")

[node name="ItemSprite" type="Sprite3D" parent="." index="1"]
transform = Transform3D(1, 0, 0, 0, -4.37114e-08, -1, 0, 1, -4.37114e-08, 0, 0, 0)
pixel_size = 0.0625
texture_filter = 0
