[gd_scene load_steps=3 format=3 uid="uid://dkb1573hmfl81"]

[ext_resource type="PackedScene" uid="uid://dikvtg280u10g" path="res://Scenes/Entities/Base/PhysicalEntity.tscn" id="1_q8ng8"]
[ext_resource type="Script" path="res://Scenes/Entities/Base/moving_entity.gd" id="2_6xdsw"]

[node name="MovingEntity" instance=ExtResource("1_q8ng8")]
script = ExtResource("2_6xdsw")
